Homework_9
…
MLR_final <- workflow() |>
  add_recipe(rec3) |>
  add_model(MLR_spec) |>
  last_fit(bike_split) 
MLR_final |> collect_metrics()

# A tibble: 2 × 4
  .metric .estimator .estimate .config             
  <chr>   <chr>          <dbl> <chr>               
1 rmse    standard    3285.    Preprocessor1_Model1
2 rsq     standard       0.895 Preprocessor1_Model1

MLR_final|>extract_fit_parsnip()|>tidy()

# A tibble: 28 × 5
   term                                estimate std.error statistic  p.value
   <chr>                                  <dbl>     <dbl>     <dbl>    <dbl>
 1 (Intercept)                         22502.       1533.  14.7     4.55e-35
 2 humidity                            -2138.       1434.  -1.49    1.37e- 1
 3 seasons_Spring                      -1984.        238.  -8.33    6.67e-15
 4 seasons_Summer                       8057.        921.   8.75    4.20e-16
 5 seasons_Winter                      -4114.        994.  -4.14    4.88e- 5
 6 holiday_No.Holiday                    894.        191.   4.69    4.61e- 6
 7 day_type_Weekend                    -1098.        169.  -6.50    4.66e-10
 8 seasons_Spring_x_holiday_No.Holiday    -2.41      256.  -0.00942 9.92e- 1
 9 seasons_Summer_x_holiday_No.Holiday  -126.        239.  -0.529   5.97e- 1
10 seasons_Winter_x_holiday_No.Holiday  -314.        188.  -1.67    9.63e- 2
# ℹ 18 more rows
…
LASSO_wkf_1 <- workflow() |>
  add_recipe(rec1) |>
  add_model(LASSO_spec)

LASSO_grid_1 <- LASSO_wkf_1 |>
  tune_grid(resamples = bike_10_fold,
            grid = grid_regular(penalty(), levels = 200))

Warning: package 'glmnet' was built under R version 4.3.3

LASSO_grid_1 |>
  collect_metrics() |>
  filter(.metric == "rmse")

# A tibble: 200 × 7
    penalty .metric .estimator  mean     n std_err .config               
      <dbl> <chr>   <chr>      <dbl> <int>   <dbl> <chr>                 
 1 1   e-10 rmse    standard   4272.    10    168. Preprocessor1_Model001
 2 1.12e-10 rmse    standard   4272.    10    168. Preprocessor1_Model002
 3 1.26e-10 rmse    standard   4272.    10    168. Preprocessor1_Model003
 4 1.41e-10 rmse    standard   4272.    10    168. Preprocessor1_Model004
 5 1.59e-10 rmse    standard   4272.    10    168. Preprocessor1_Model005
 6 1.78e-10 rmse    standard   4272.    10    168. Preprocessor1_Model006
 7 2.00e-10 rmse    standard   4272.    10    168. Preprocessor1_Model007
 8 2.25e-10 rmse    standard   4272.    10    168. Preprocessor1_Model008
 9 2.52e-10 rmse    standard   4272.    10    168. Preprocessor1_Model009
10 2.83e-10 rmse    standard   4272.    10    168. Preprocessor1_Model010
# ℹ 190 more rows
…
## LASSO 2

LASSO_wkf_2 <- workflow() |>
  add_recipe(rec2) |>
  add_model(LASSO_spec)

LASSO_grid_2 <- LASSO_wkf_2 |>
  tune_grid(resamples = bike_10_fold,
            grid = grid_regular(penalty(), levels = 200))

LASSO_grid_2 |>
  collect_metrics() |>
  filter(.metric == "rmse")

# A tibble: 200 × 7
    penalty .metric .estimator  mean     n std_err .config               
      <dbl> <chr>   <chr>      <dbl> <int>   <dbl> <chr>                 
 1 1   e-10 rmse    standard   3077.    10    282. Preprocessor1_Model001
 2 1.12e-10 rmse    standard   3077.    10    282. Preprocessor1_Model002
 3 1.26e-10 rmse    standard   3077.    10    282. Preprocessor1_Model003
 4 1.41e-10 rmse    standard   3077.    10    282. Preprocessor1_Model004
 5 1.59e-10 rmse    standard   3077.    10    282. Preprocessor1_Model005
 6 1.78e-10 rmse    standard   3077.    10    282. Preprocessor1_Model006
 7 2.00e-10 rmse    standard   3077.    10    282. Preprocessor1_Model007
 8 2.25e-10 rmse    standard   3077.    10    282. Preprocessor1_Model008
 9 2.52e-10 rmse    standard   3077.    10    282. Preprocessor1_Model009
10 2.83e-10 rmse    standard   3077.    10    282. Preprocessor1_Model010
# ℹ 190 more rows
…
## LASSO 3

LASSO_wkf_3 <- workflow() |>
  add_recipe(rec3) |>
  add_model(LASSO_spec)

LASSO_grid_3 <- LASSO_wkf_3 |>
  tune_grid(resamples = bike_10_fold,
            grid = grid_regular(penalty(), levels = 200))

LASSO_grid_3 |>
  collect_metrics() |>
  filter(.metric == "rmse")

# A tibble: 200 × 7
    penalty .metric .estimator  mean     n std_err .config               
      <dbl> <chr>   <chr>      <dbl> <int>   <dbl> <chr>                 
 1 1   e-10 rmse    standard   3008.    10    228. Preprocessor1_Model001
 2 1.12e-10 rmse    standard   3008.    10    228. Preprocessor1_Model002
 3 1.26e-10 rmse    standard   3008.    10    228. Preprocessor1_Model003
 4 1.41e-10 rmse    standard   3008.    10    228. Preprocessor1_Model004
 5 1.59e-10 rmse    standard   3008.    10    228. Preprocessor1_Model005
 6 1.78e-10 rmse    standard   3008.    10    228. Preprocessor1_Model006
 7 2.00e-10 rmse    standard   3008.    10    228. Preprocessor1_Model007
 8 2.25e-10 rmse    standard   3008.    10    228. Preprocessor1_Model008
 9 2.52e-10 rmse    standard   3008.    10    228. Preprocessor1_Model009
10 2.83e-10 rmse    standard   3008.    10    228. Preprocessor1_Model010
# ℹ 190 more rows
…
# A tibble: 2 × 4
  .metric .estimator .estimate .config             
  <chr>   <chr>          <dbl> <chr>               
1 rmse    standard    3286.    Preprocessor1_Model1
2 rsq     standard       0.895 Preprocessor1_Model1

LASSO_final_3 <- LASSO_wkf_3 |>
  finalize_workflow(lowest_rmse_3) |>
  fit(bike_train)
tidy(LASSO_final_3)

# A tibble: 28 × 3
   term                                estimate      penalty
   <chr>                                  <dbl>        <dbl>
 1 (Intercept)                          23002.  0.0000000001
 2 humidity                              -695.  0.0000000001
 3 seasons_Spring                       -1974.  0.0000000001
 4 seasons_Summer                        8139.  0.0000000001
 5 seasons_Winter                       -3703.  0.0000000001
 6 holiday_No.Holiday                     854.  0.0000000001
 7 day_type_Weekend                     -1100.  0.0000000001
 8 seasons_Spring_x_holiday_No.Holiday    -15.5 0.0000000001
 9 seasons_Summer_x_holiday_No.Holiday    -99.8 0.0000000001
10 seasons_Winter_x_holiday_No.Holiday   -269.  0.0000000001
# ℹ 18 more rows
…
tree_grid_1 <- grid_regular(cost_complexity(),
                          tree_depth(),
                          levels = c(10, 5))

tree_fits_1 <- tree_wkf_1 |> 
  tune_grid(resamples = bike_10_fold,
            grid = tree_grid_1)

tree_fits_1 |>
  collect_metrics()

# A tibble: 100 × 8
   cost_complexity tree_depth .metric .estimator     mean     n  std_err .config
             <dbl>      <int> <chr>   <chr>         <dbl> <int>    <dbl> <chr>  
 1    0.0000000001          1 rmse    standard   6432.       10 350.     Prepro…
 2    0.0000000001          1 rsq     standard      0.595    10   0.0484 Prepro…
 3    0.000000001           1 rmse    standard   6432.       10 350.     Prepro…
 4    0.000000001           1 rsq     standard      0.595    10   0.0484 Prepro…
 5    0.00000001            1 rmse    standard   6432.       10 350.     Prepro…
 6    0.00000001            1 rsq     standard      0.595    10   0.0484 Prepro…
 7    0.0000001             1 rmse    standard   6432.       10 350.     Prepro…
 8    0.0000001             1 rsq     standard      0.595    10   0.0484 Prepro…
 9    0.000001              1 rmse    standard   6432.       10 350.     Prepro…
10    0.000001              1 rsq     standard      0.595    10   0.0484 Prepro…
# ℹ 90 more rows
…
tree_fits_1 |>
  collect_metrics() |>
  filter(.metric == "rmse") |>
  arrange(mean)

# A tibble: 50 × 8
   cost_complexity tree_depth .metric .estimator  mean     n std_err .config    
             <dbl>      <int> <chr>   <chr>      <dbl> <int>   <dbl> <chr>      
 1    0.001                11 rmse    standard   3817.    10    285. Preprocess…
 2    0.001                15 rmse    standard   3817.    10    285. Preprocess…
 3    0.0000000001         11 rmse    standard   3837.    10    302. Preprocess…
 4    0.000000001          11 rmse    standard   3837.    10    302. Preprocess…
 5    0.00000001           11 rmse    standard   3837.    10    302. Preprocess…
 6    0.0000001            11 rmse    standard   3837.    10    302. Preprocess…
 7    0.000001             11 rmse    standard   3837.    10    302. Preprocess…
 8    0.00001              11 rmse    standard   3837.    10    302. Preprocess…
 9    0.0001               11 rmse    standard   3837.    10    302. Preprocess…
10    0.0000000001         15 rmse    standard   3837.    10    302. Preprocess…
# ℹ 40 more rows
…
tree_grid_2 <- grid_regular(cost_complexity(),
                          tree_depth(),
                          levels = c(10, 5))

tree_fits_2 <- tree_wkf_2 |> 
  tune_grid(resamples = bike_10_fold,
            grid = tree_grid_2)

tree_fits_2 |>
  collect_metrics()

# A tibble: 100 × 8
   cost_complexity tree_depth .metric .estimator     mean     n  std_err .config
             <dbl>      <int> <chr>   <chr>         <dbl> <int>    <dbl> <chr>  
 1    0.0000000001          1 rmse    standard   6432.       10 350.     Prepro…
 2    0.0000000001          1 rsq     standard      0.595    10   0.0484 Prepro…
 3    0.000000001           1 rmse    standard   6432.       10 350.     Prepro…
 4    0.000000001           1 rsq     standard      0.595    10   0.0484 Prepro…
 5    0.00000001            1 rmse    standard   6432.       10 350.     Prepro…
 6    0.00000001            1 rsq     standard      0.595    10   0.0484 Prepro…
 7    0.0000001             1 rmse    standard   6432.       10 350.     Prepro…
 8    0.0000001             1 rsq     standard      0.595    10   0.0484 Prepro…
 9    0.000001              1 rmse    standard   6432.       10 350.     Prepro…
10    0.000001              1 rsq     standard      0.595    10   0.0484 Prepro…
# ℹ 90 more rows
…
tree_fits_2 |>
  collect_metrics() |>
  filter(.metric == "rmse") |>
  arrange(mean)

# A tibble: 50 × 8
   cost_complexity tree_depth .metric .estimator  mean     n std_err .config    
             <dbl>      <int> <chr>   <chr>      <dbl> <int>   <dbl> <chr>      
 1    0.001                11 rmse    standard   3846.    10    283. Preprocess…
 2    0.001                15 rmse    standard   3846.    10    283. Preprocess…
 3    0.0000000001         11 rmse    standard   3874.    10    296. Preprocess…
 4    0.000000001          11 rmse    standard   3874.    10    296. Preprocess…
 5    0.00000001           11 rmse    standard   3874.    10    296. Preprocess…
 6    0.0000001            11 rmse    standard   3874.    10    296. Preprocess…
 7    0.000001             11 rmse    standard   3874.    10    296. Preprocess…
 8    0.00001              11 rmse    standard   3874.    10    296. Preprocess…
 9    0.0001               11 rmse    standard   3874.    10    296. Preprocess…
10    0.0000000001         15 rmse    standard   3874.    10    296. Preprocess…
# ℹ 40 more rows
…
